<svg xmlns="http://www.w3.org/2000/svg" width="74.516" height="74.516" viewBox="0 0 74.516 74.516">
  <g id="user" transform="translate(1 1)">
    <circle id="Ellipse_42" data-name="Ellipse 42" cx="36.258" cy="36.258" r="36.258" fill="#e5f9e0" stroke="#535e7d" stroke-miterlimit="10" stroke-width="2"/>
    <path id="Path_68" data-name="Path 68" d="M49.9,169.1a36.29,36.29,0,0,0,41.884,0Z" transform="translate(-34.296 -104.139)" fill="#f7941e"/>
    <g id="Group_33" data-name="Group 33" transform="translate(15.604 7.722)">
      <g id="Group_32" data-name="Group 32" transform="translate(0 6.979)">
        <rect id="Rectangle_67" data-name="Rectangle 67" width="8.5" height="9.485" transform="translate(16.384 35.806)" fill="#fdcc9b"/>
        <path id="Path_69" data-name="Path 69" d="M89.8,135.009a14.49,14.49,0,0,0,8.5,1.766V133.9H89.8Z" transform="translate(-73.416 -98.094)" fill="#fcbc85"/>
        <ellipse id="Ellipse_36" data-name="Ellipse 36" cx="4.147" cy="4.722" rx="4.147" ry="4.722" transform="translate(0 16.343)" fill="#fcbc85"/>
        <ellipse id="Ellipse_37" data-name="Ellipse 37" cx="4.147" cy="4.722" rx="4.147" ry="4.722" transform="translate(32.973 16.343)" fill="#fcbc85"/>
        <path id="Path_70" data-name="Path 70" d="M93.008,58.731c0-6.94-5.092-12.031-16.466-12.031S60.076,51.792,60.076,58.731,58.885,84.026,76.542,84.026,93.008,65.712,93.008,58.731Z" transform="translate(-55.888 -46.7)" fill="#fdcc9b"/>
        <g id="Group_31" data-name="Group 31" transform="translate(9.606 12.77)">
          <g id="Group_29" data-name="Group 29" transform="translate(1.235 5.215)">
            <ellipse id="Ellipse_38" data-name="Ellipse 38" cx="1.766" cy="1.971" rx="1.766" ry="1.971" fill="#3b2519"/>
            <circle id="Ellipse_39" data-name="Ellipse 39" cx="0.534" cy="0.534" r="0.534" transform="translate(0.493 0.575)" fill="#fff"/>
          </g>
          <path id="Path_71" data-name="Path 71" d="M73.46,80.141c.862.411,2.176-1.437,5.3.164.575.287.9-2.5-2.423-2.5C73.46,77.8,72.967,79.894,73.46,80.141Z" transform="translate(-73.293 -77.8)" fill="#51362a"/>
          <g id="Group_30" data-name="Group 30" transform="translate(17.496 5.215)">
            <ellipse id="Ellipse_40" data-name="Ellipse 40" cx="1.766" cy="1.971" rx="1.766" ry="1.971" fill="#3b2519"/>
            <circle id="Ellipse_41" data-name="Ellipse 41" cx="0.534" cy="0.534" r="0.534" transform="translate(0.452 0.575)" fill="#fff"/>
          </g>
          <path id="Path_72" data-name="Path 72" d="M118.47,80.141c-.862.411-2.176-1.437-5.3.164-.575.287-.9-2.5,2.423-2.5C118.47,77.8,119,79.894,118.47,80.141Z" transform="translate(-96.581 -77.8)" fill="#51362a"/>
        </g>
        <path id="Path_73" data-name="Path 73" d="M96.133,110.762c-1.766,0-2.833-1.314-2.833-.7,0,.657.493,1.848,2.833,1.848s2.833-1.191,2.833-1.848C98.926,109.448,97.9,110.762,96.133,110.762Z" transform="translate(-75.479 -83.948)" fill="#fcbc85"/>
        <path id="Path_74" data-name="Path 74" d="M98.786,125.77c-.616,0-.986-.452-.986-.246s.164.657.986.657.985-.411.985-.657C99.73,125.318,99.4,125.77,98.786,125.77Z" transform="translate(-78.131 -93.125)" fill="#fcbc85"/>
        <path id="Path_75" data-name="Path 75" d="M93.776,121c-2.792,0-4.476-1.15-4.476-.862s.821,1.437,4.476,1.437,4.476-1.15,4.476-1.437S96.568,121,93.776,121Z" transform="translate(-73.121 -89.953)" fill="#f7945e"/>
      </g>
      <path id="Path_76" data-name="Path 76" d="M70.613,143.2v10.676H50C50,149.565,60.84,143.2,70.613,143.2Z" transform="translate(-49.959 -96.596)" fill="#f7941e"/>
      <path id="Path_77" data-name="Path 77" d="M100.2,143.2v10.676h20.613C120.813,149.565,109.932,143.2,100.2,143.2Z" transform="translate(-79.546 -96.596)" fill="#f7941e"/>
      <path id="Path_78" data-name="Path 78" d="M91.241,143.2a26.788,26.788,0,0,0-6.241.78,8.434,8.434,0,0,0,6.241,2.956,9.207,9.207,0,0,0,6.488-2.915A29.253,29.253,0,0,0,91.241,143.2Z" transform="translate(-70.587 -96.596)" fill="#f36c21"/>
      <path id="Path_79" data-name="Path 79" d="M89.8,143.078a6.646,6.646,0,0,0,8.459,0A13.309,13.309,0,0,0,89.8,143.078Z" transform="translate(-73.416 -96.105)" fill="#fdcc9b"/>
      <path id="Path_80" data-name="Path 80" d="M86.982,35.205s-6.118-7.761-18.807-4.845S54.543,40.913,54.912,48.345,56.309,60.13,57.5,59.6s.575-5.461.7-6.57c.123-1.15,1.273-6.241,8.993-5.5a31.68,31.68,0,0,0,14.249-2.053s2.628,3.326,4.353,3.942c3.449,1.273,2.3,9.732,3.655,9.732S97.412,39.64,86.982,35.205Z" transform="translate(-52.818 -29.705)" fill="#51362a"/>
    </g>
  </g>
</svg>
