<svg xmlns="http://www.w3.org/2000/svg" width="18.812" height="22.574" viewBox="0 0 18.812 22.574">
  <g id="hourglass_1_" data-name="hourglass (1)" transform="translate(-5)">
    <path id="Path_590" data-name="Path 590" d="M25.1,11.432a2.657,2.657,0,0,0,1.183-2.21V5H15V9.222a2.657,2.657,0,0,0,1.183,2.21l3.506,2.575a.5.5,0,0,1,.2.4h0a.5.5,0,0,1-.2.4L16.183,17.38A2.657,2.657,0,0,0,15,19.59v4.222H26.287V19.59A2.657,2.657,0,0,0,25.1,17.38L21.6,14.805a.5.5,0,0,1-.2-.4h0a.5.5,0,0,1,.2-.4Z" transform="translate(-6.238 -3.119)" fill="#e6e6e6"/>
    <rect id="Rectangle_178" data-name="Rectangle 178" width="15.049" height="1.505" transform="translate(6.881 20.693)" fill="#9e6c53"/>
    <rect id="Rectangle_179" data-name="Rectangle 179" width="15.049" height="1.505" transform="translate(6.881 0.376)" fill="#9e6c53"/>
    <g id="Group_64" data-name="Group 64" transform="translate(5)">
      <path id="Path_591" data-name="Path 591" d="M23.436,58H5.376a.376.376,0,1,0,0,.752H23.436a.376.376,0,1,0,0-.752Z" transform="translate(-5 -36.178)" fill="#8a5336"/>
      <path id="Path_592" data-name="Path 592" d="M5.376.752H23.436a.376.376,0,0,0,0-.752H5.376a.376.376,0,0,0,0,.752Z" transform="translate(-5)" fill="#8a5336"/>
    </g>
    <path id="Path_593" data-name="Path 593" d="M26.349,13.32a1.525,1.525,0,0,0,.68-1.271h0a1.071,1.071,0,0,0-.811-1.039L20.555,9.594A2.056,2.056,0,0,0,18,11.589v.46a1.525,1.525,0,0,0,.68,1.271l3.458,2.538v5.974a1.87,1.87,0,0,1-2.655,1.7h0A1.036,1.036,0,0,0,18,24.412v2.226h9.03V22.4A1.2,1.2,0,0,0,25.6,21.275l-.771.134a1.657,1.657,0,0,1-1.942-1.632V15.858Z" transform="translate(-8.109 -5.946)" fill="#ebba16"/>
  </g>
</svg>
